# Exported from 3D Builder
o Object.1
v 37.398003 0.000000 0.000000
v 56.100002 20.000000 0.000000
v 74.800003 0.000000 0.000000
v 37.398003 79.998001 0.000000
v 37.398003 40.000000 0.000000
v 18.700001 59.998001 0.000000
v 0.000000 40.000000 0.000000
v 0.000000 79.998001 0.000000
v 0.000000 0.000000 0.000000
v 18.700001 20.000000 0.000000
v 56.100002 59.998001 0.000000
v 74.800003 40.000000 0.000000
v 74.800003 79.998001 0.000000
v 74.800003 0.000000 37.398003
v 56.100002 0.000000 18.700001
v 0.000000 0.000000 37.398003
v 37.398003 0.000000 37.398003
v 18.700001 0.000000 56.100002
v 37.398003 0.000000 74.800003
v 0.000000 0.000000 74.800003
v 74.800003 0.000000 74.800003
v 56.100002 0.000000 56.100002
v 18.700001 0.000000 18.700001
v 37.398003 79.998001 74.800003
v 0.000000 79.998001 74.800003
v 18.700001 59.998001 74.800003
v 37.398003 40.000000 74.800003
v 0.000000 40.000000 74.800003
v 18.700001 20.000000 74.800003
v 56.100002 59.998001 74.800003
v 74.800003 40.000000 74.800003
v 56.100002 20.000000 74.800003
v 74.800003 79.998001 74.800003
v 74.800003 40.000000 37.398003
v 74.800003 79.998001 37.398003
v 74.800003 59.998001 56.100002
v 74.800003 20.000000 18.700001
v 74.800003 20.000000 56.100002
v 74.800003 59.998001 18.700001
v 74.100006 79.998001 39.098003
v 73.400002 79.998001 3.400002
v 73.400002 79.998001 37.398003
v 1.400000 79.998001 73.400002
v 0.700000 79.998001 36.698002
v 1.400000 79.998001 71.400002
v 1.400000 79.998001 37.398003
v 73.400002 79.998001 71.400002
v 37.398003 79.998001 1.400002
v 39.098003 79.998001 0.699997
v 3.400000 79.998001 1.400002
v 37.398003 79.998001 73.400002
v 39.098003 79.998001 74.100006
v 71.400002 79.998001 73.400002
v 38.098003 79.998001 0.699997
v 73.400002 79.998001 1.400002
v 71.400002 79.998001 1.400002
v 0.000000 79.998001 37.398003
v 1.400000 79.998001 1.400002
v 74.100006 79.998001 38.098003
v 38.098003 79.998001 74.100006
v 3.400000 79.998001 73.400002
v 1.400000 79.998001 3.400002
v 73.400002 79.998001 73.400002
v 73.400002 30.398001 1.400002
v 73.400002 45.198002 19.398003
v 73.400002 59.998001 1.400002
v 73.400002 30.398001 73.400002
v 73.400002 30.398001 37.398003
v 73.400002 15.598001 55.398003
v 73.400002 0.798000 37.398003
v 73.400002 0.798000 73.400002
v 73.400002 59.998001 37.398003
v 73.400002 0.798000 1.400002
v 73.400002 15.598001 19.398003
v 73.400002 59.998001 73.400002
v 73.400002 45.198002 55.398003
v 73.400002 74.998001 68.400002
v 73.400002 67.498001 39.898003
v 73.400002 69.998001 38.398003
v 73.400002 74.998001 6.400002
v 73.400002 77.498001 35.898003
v 73.400002 74.998001 3.400002
v 73.400002 74.998001 71.400002
v 73.400002 74.998001 73.400002
v 73.400002 74.998001 1.400002
v 53.898003 60.198002 1.400002
v 36.398003 40.398003 1.400002
v 52.398003 57.698002 1.400002
v 51.650002 56.450005 1.400002
v 68.400002 74.998001 1.400002
v 34.898003 37.898003 1.400002
v 70.900002 37.898003 1.400002
v 54.150002 19.350000 1.400002
v 1.400000 0.798000 1.400002
v 37.398003 0.798000 1.400002
v 18.150002 19.350000 1.400002
v 18.898001 20.598001 1.400002
v 38.898003 77.498001 1.400002
v 6.400000 74.998001 1.400002
v 36.398003 69.998001 1.400002
v 3.400000 74.998001 1.400002
v 1.400000 30.398001 1.400002
v 1.400000 59.998001 1.400002
v 1.400000 74.998001 1.400002
v 71.400002 74.998001 1.400002
v 72.400002 74.998001 71.400002
v 72.566002 74.998001 71.732002
v 72.150002 74.998001 71.900002
v 72.732002 74.998001 72.066002
v 72.600006 74.998001 71.800003
v 72.066002 74.998001 72.066002
v 68.400002 74.998001 73.400002
v 2.066000 74.998001 2.732002
v 2.732000 74.998001 2.066002
v 71.400002 74.998001 2.400002
v 3.400000 74.998001 73.400002
v 3.400000 74.998001 72.400002
v 2.732000 74.998001 72.732002
v 72.400002 74.998001 3.400002
v 72.732002 74.998001 2.732002
v 72.066002 74.998001 3.066002
v 1.400000 74.998001 71.400002
v 2.232000 74.998001 71.732002
v 2.400000 74.998001 71.400002
v 71.400002 74.998001 72.400002
v 1.400000 74.998001 6.400002
v 2.732000 74.998001 3.066002
v 2.400000 74.998001 3.400002
v 71.400002 74.998001 73.400002
v 72.066002 74.998001 2.066002
v 71.732002 74.998001 2.232002
v 1.400000 74.998001 73.400002
v 2.066000 74.998001 72.066002
v 1.400000 74.998001 3.400002
v 6.400000 74.998001 73.400002
v 1.400000 74.998001 68.400002
v 3.400000 74.998001 2.400002
v 3.066000 74.998001 2.232002
v 3.066000 74.998001 72.066002
v 37.398003 0.798000 73.400002
v 37.398003 30.398001 73.400002
v 55.398003 15.598001 73.400002
v 38.898003 77.498001 73.400002
v 36.398003 69.998001 73.400002
v 1.400000 0.798000 73.400002
v 19.398001 15.598001 73.400002
v 1.400000 30.398001 73.400002
v 37.398003 59.998001 73.400002
v 19.398001 45.198002 73.400002
v 1.400000 59.998001 73.400002
v 55.398003 45.198002 73.400002
v 34.898003 67.498001 73.400002
v 1.400000 59.998001 37.398003
v 1.400000 30.398001 37.398003
v 1.400000 45.198002 19.398003
v 1.400000 0.798000 37.398003
v 1.400000 15.598001 55.398003
v 1.400000 15.598001 19.398003
v 1.400000 67.498001 34.898003
v 1.400000 45.198002 55.398003
v 1.400000 77.498001 38.898003
v 1.400000 69.998001 36.398003
v 37.398003 0.798000 37.398003
v 55.398003 0.798000 19.398003
v 19.398001 0.798000 19.398003
v 19.398001 0.798000 55.398003
v 55.398003 0.798000 55.398003
v 0.000000 59.998001 18.700001
v 0.000000 40.000000 37.398003
v 0.000000 59.998001 56.100002
v 0.000000 20.000000 18.700001
v 0.000000 20.000000 56.100002


f 1 2 3
f 4 5 6
f 7 6 5
f 7 8 6
f 9 10 1
f 5 11 12
f 5 10 7
f 5 1 10
f 1 5 2
f 9 7 10
f 13 11 4
f 13 12 11
f 5 4 11
f 12 2 5
f 12 3 2
f 4 6 8
f 14 15 3
f 16 17 18
f 19 20 18
f 21 19 22
f 17 22 19
f 19 18 17
f 21 22 14
f 9 23 16
f 1 15 17
f 17 23 1
f 17 16 23
f 17 14 22
f 1 3 15
f 16 18 20
f 14 17 15
f 9 1 23
f 24 25 26
f 24 26 27
f 28 27 26
f 27 28 29
f 20 29 28
f 27 30 24
f 27 29 19
f 31 32 21
f 19 21 32
f 27 31 30
f 19 32 27
f 20 19 29
f 33 30 31
f 31 27 32
f 33 24 30
f 28 26 25
f 34 35 36
f 3 12 37
f 33 36 35
f 34 36 31
f 14 34 38
f 3 37 14
f 12 13 39
f 31 21 38
f 31 38 34
f 35 39 13
f 35 34 39
f 34 14 37
f 12 39 34
f 34 37 12
f 14 38 21
f 33 31 36
f 40 41 42
f 24 43 25
f 44 45 46
f 44 43 45
f 33 40 47
f 48 49 50
f 51 52 53
f 54 50 49
f 35 13 55
f 56 13 49
f 8 57 44
f 4 58 54
f 41 40 59
f 33 60 24
f 52 61 60
f 61 52 51
f 33 53 52
f 46 62 44
f 33 47 63
f 60 33 52
f 33 35 59
f 56 49 48
f 50 54 58
f 53 33 63
f 43 60 61
f 43 44 57
f 8 58 4
f 59 55 41
f 8 44 58
f 42 47 40
f 58 44 62
f 43 24 60
f 49 13 54
f 33 59 40
f 55 59 35
f 4 54 13
f 57 25 43
f 55 13 56
f 64 65 66
f 67 68 69
f 64 68 65
f 70 69 68
f 70 71 69
f 72 66 65
f 73 70 74
f 75 76 67
f 47 42 77
f 78 79 80
f 68 67 76
f 73 74 64
f 68 74 70
f 79 81 41
f 68 64 74
f 75 72 76
f 68 76 72
f 72 65 68
f 72 75 78
f 67 69 71
f 79 77 81
f 42 41 81
f 42 81 77
f 72 78 80
f 79 78 75
f 66 72 80
f 41 80 79
f 41 55 82
f 83 84 47
f 77 79 75
f 63 47 84
f 85 82 55
f 86 87 88
f 89 90 88
f 88 90 86
f 91 89 87
f 92 91 93
f 91 92 89
f 89 92 90
f 56 86 90
f 88 87 89
f 94 95 96
f 97 94 96
f 98 99 100
f 66 92 64
f 95 73 93
f 96 95 91
f 96 91 97
f 50 58 101
f 87 86 100
f 93 73 92
f 94 97 102
f 87 97 91
f 93 91 95
f 87 102 97
f 64 92 73
f 102 87 103
f 66 90 92
f 99 98 48
f 103 100 99
f 56 100 86
f 56 48 98
f 100 56 98
f 55 56 85
f 100 103 87
f 104 101 58
f 105 85 56
f 48 50 99
f 106 107 83
f 106 108 107
f 109 110 111
f 106 112 108
f 104 113 114
f 90 80 115
f 116 117 118
f 119 120 121
f 122 123 124
f 84 83 109
f 108 125 111
f 108 112 125
f 126 127 128
f 129 111 125
f 120 130 131
f 122 132 133
f 105 130 85
f 128 113 134
f 121 131 115
f 133 132 118
f 135 136 124
f 77 112 106
f 137 101 138
f 114 113 138
f 127 138 113
f 116 118 132
f 82 120 119
f 104 134 113
f 122 133 123
f 120 85 130
f 84 109 129
f 135 139 117
f 126 99 137
f 121 80 119
f 105 131 130
f 105 115 131
f 109 83 110
f 139 123 133
f 107 108 110
f 135 124 139
f 138 127 137
f 104 114 101
f 138 101 114
f 82 85 120
f 111 110 108
f 110 83 107
f 139 124 123
f 126 137 127
f 115 80 121
f 131 121 120
f 111 129 109
f 133 117 139
f 133 118 117
f 113 128 127
f 56 90 115
f 125 53 129
f 105 56 115
f 80 90 66
f 112 77 75
f 140 141 142
f 143 144 135
f 145 146 140
f 141 146 147
f 141 140 146
f 148 141 149
f 147 149 141
f 147 150 149
f 53 112 144
f 67 71 142
f 75 151 148
f 152 144 112
f 144 143 53
f 141 151 67
f 145 147 146
f 141 148 151
f 75 67 151
f 129 53 63
f 67 142 141
f 148 112 75
f 112 148 152
f 148 149 150
f 53 143 51
f 140 142 71
f 135 51 143
f 51 135 61
f 150 152 148
f 144 152 150
f 63 84 129
f 61 116 132
f 150 135 144
f 132 43 61
f 135 150 136
f 153 154 155
f 153 155 103
f 102 103 155
f 156 154 157
f 154 156 158
f 103 159 153
f 102 155 154
f 154 158 102
f 94 158 156
f 150 147 160
f 161 162 126
f 150 160 153
f 154 160 147
f 147 157 154
f 154 153 160
f 94 102 158
f 147 145 157
f 162 45 136
f 126 46 161
f 46 126 62
f 103 162 159
f 45 161 46
f 156 157 145
f 136 153 159
f 153 136 150
f 136 159 162
f 45 162 161
f 104 62 134
f 122 43 132
f 43 122 45
f 62 104 58
f 103 126 162
f 50 137 99
f 101 137 50
f 117 116 61
f 99 126 103
f 128 62 126
f 41 82 119
f 134 62 128
f 117 61 135
f 136 45 124
f 47 106 83
f 122 124 45
f 95 163 164
f 94 165 95
f 140 163 166
f 70 73 164
f 70 164 163
f 163 167 70
f 94 156 165
f 140 166 145
f 156 145 166
f 163 95 165
f 95 164 73
f 156 166 163
f 163 165 156
f 163 140 167
f 71 167 140
f 71 70 167
f 47 77 106
f 53 125 112
f 119 80 41
f 57 8 168
f 169 28 170
f 7 169 168
f 9 171 7
f 169 171 16
f 169 7 171
f 25 57 170
f 169 170 57
f 57 168 169
f 25 170 28
f 7 168 8
f 28 169 172
f 16 172 169
f 16 20 172
f 9 16 171
f 28 172 20
